{
  "href" : "https://api.spotify.com/v1/artists/51Blml2LZPmy7TTiAg47vQ/albums?offset=0&limit=20&album_type=single,album,compilation,appears_on,ep",
  "items" : [ {
    "album_type" : "album",
    "available_markets" : [ "AD", "AR", "AT", "AU", "BE", "BG", "BO", "BR", "CH", "CL", "CO", "CR", "CY", "CZ", "DE", "DK", "DO", "EC", "EE", "ES", "FI", "FR", "GB", "GR", "GT", "HK", "HN", "HU", "IE", "IS", "IT", "LI", "LT", "LU", "LV", "MC", "MT", "MY", "NI", "NL", "NO", "NZ", "PA", "PE", "PH", "PL", "PT", "PY", "RO", "SG", "SI", "SK", "SV", "TR", "TW", "UY" ],
    "external_urls" : {
      "spotify" : "https://open.spotify.com/album/7DY6v8qiyQcsTCqUWjH7pS"
    },
    "href" : "https://api.spotify.com/v1/albums/7DY6v8qiyQcsTCqUWjH7pS",
    "id" : "7DY6v8qiyQcsTCqUWjH7pS",
    "images" : [ {
      "height" : 640,
      "url" : "https://i.scdn.co/image/a59a796b7c5e778c1a2ffcc7dda4974f4c53fd83",
      "width" : 640
    }, {
      "height" : 300,
      "url" : "https://i.scdn.co/image/477593101a951064737c2f60bce9dc1ae226f915",
      "width" : 300
    }, {
      "height" : 64,
      "url" : "https://i.scdn.co/image/eb740cef5aa3d5e119baf868bdff2dbb5cc1a59b",
      "width" : 64
    } ],
    "name" : "Songs Of Innocence",
    "type" : "album",
    "uri" : "spotify:album:7DY6v8qiyQcsTCqUWjH7pS"
  }, {
    "album_type" : "album",
    "available_markets" : [ "CA", "MX", "US" ],
    "external_urls" : {
      "spotify" : "https://open.spotify.com/album/45Ec0wYJ7npo6lXH4GWmxz"
    },
    "href" : "https://api.spotify.com/v1/albums/45Ec0wYJ7npo6lXH4GWmxz",
    "id" : "45Ec0wYJ7npo6lXH4GWmxz",
    "images" : [ {
      "height" : 640,
      "url" : "https://i.scdn.co/image/6bf843a6e0e606cc9adb4c00e1d7cccffd94bea1",
      "width" : 640
    }, {
      "height" : 300,
      "url" : "https://i.scdn.co/image/0928deda1fa2d27f8b9e7bb2c51f180c44e2d931",
      "width" : 300
    }, {
      "height" : 64,
      "url" : "https://i.scdn.co/image/c55c41359b1977e7087f4484b18044ed215ba631",
      "width" : 64
    } ],
    "name" : "Songs Of Innocence",
    "type" : "album",
    "uri" : "spotify:album:45Ec0wYJ7npo6lXH4GWmxz"
  }, {
    "album_type" : "album",
    "available_markets" : [ "AD", "AR", "AT", "AU", "BE", "BG", "BO", "BR", "CH", "CL", "CO", "CR", "CY", "CZ", "DE", "DK", "DO", "EC", "EE", "ES", "FI", "FR", "GB", "GR", "GT", "HK", "HN", "HU", "IE", "IS", "IT", "LI", "LT", "LU", "LV", "MC", "MT", "MY", "NI", "NL", "NO", "NZ", "PA", "PE", "PH", "PL", "PT", "PY", "RO", "SE", "SG", "SI", "SK", "SV", "TR", "TW", "UY" ],
    "external_urls" : {
      "spotify" : "https://open.spotify.com/album/6wQXpkptAIZPzNf5H0SA10"
    },
    "href" : "https://api.spotify.com/v1/albums/6wQXpkptAIZPzNf5H0SA10",
    "id" : "6wQXpkptAIZPzNf5H0SA10",
    "images" : [ {
      "height" : 640,
      "url" : "https://i.scdn.co/image/a59a796b7c5e778c1a2ffcc7dda4974f4c53fd83",
      "width" : 640
    }, {
      "height" : 300,
      "url" : "https://i.scdn.co/image/477593101a951064737c2f60bce9dc1ae226f915",
      "width" : 300
    }, {
      "height" : 64,
      "url" : "https://i.scdn.co/image/eb740cef5aa3d5e119baf868bdff2dbb5cc1a59b",
      "width" : 64
    } ],
    "name" : "Songs Of Innocence (Deluxe)",
    "type" : "album",
    "uri" : "spotify:album:6wQXpkptAIZPzNf5H0SA10"
  }, {
    "album_type" : "album",
    "available_markets" : [ "CA", "MX", "US" ],
    "external_urls" : {
      "spotify" : "https://open.spotify.com/album/5tWSTNTqzqZhKo7FCyLwPk"
    },
    "href" : "https://api.spotify.com/v1/albums/5tWSTNTqzqZhKo7FCyLwPk",
    "id" : "5tWSTNTqzqZhKo7FCyLwPk",
    "images" : [ {
      "height" : 640,
      "url" : "https://i.scdn.co/image/6bf843a6e0e606cc9adb4c00e1d7cccffd94bea1",
      "width" : 640
    }, {
      "height" : 300,
      "url" : "https://i.scdn.co/image/0928deda1fa2d27f8b9e7bb2c51f180c44e2d931",
      "width" : 300
    }, {
      "height" : 64,
      "url" : "https://i.scdn.co/image/c55c41359b1977e7087f4484b18044ed215ba631",
      "width" : 64
    } ],
    "name" : "Songs Of Innocence (Deluxe)",
    "type" : "album",
    "uri" : "spotify:album:5tWSTNTqzqZhKo7FCyLwPk"
  }, {
    "album_type" : "album",
    "available_markets" : [ "AD", "AR", "AT", "AU", "BE", "BG", "BO", "BR", "CH", "CL", "CO", "CR", "CY", "CZ", "DE", "DK", "DO", "EC", "EE", "ES", "FI", "FR", "GB", "GR", "GT", "HK", "HN", "HU", "IE", "IS", "IT", "LI", "LT", "LU", "LV", "MC", "MT", "MY", "NI", "NL", "NO", "NZ", "PA", "PE", "PH", "PL", "PT", "PY", "RO", "SE", "SG", "SI", "SK", "SV", "TR", "TW", "UY" ],
    "external_urls" : {
      "spotify" : "https://open.spotify.com/album/5yqMA7IvahYJc53ewRAMnP"
    },
    "href" : "https://api.spotify.com/v1/albums/5yqMA7IvahYJc53ewRAMnP",
    "id" : "5yqMA7IvahYJc53ewRAMnP",
    "images" : [ {
      "height" : 640,
      "url" : "https://i.scdn.co/image/a2f4e4d3fae683be0cff5864ea7698b375a6aed2",
      "width" : 640
    }, {
      "height" : 300,
      "url" : "https://i.scdn.co/image/cc1c2a850024e8a002d36ffc373211d18365c231",
      "width" : 300
    }, {
      "height" : 64,
      "url" : "https://i.scdn.co/image/637a15efe1b5f75629148891bbad8a8479156142",
      "width" : 64
    } ],
    "name" : "No Line On The Horizon",
    "type" : "album",
    "uri" : "spotify:album:5yqMA7IvahYJc53ewRAMnP"
  }, {
    "album_type" : "album",
    "available_markets" : [ "CA", "MX", "US" ],
    "external_urls" : {
      "spotify" : "https://open.spotify.com/album/2cVfcuckyfRP6KVAHsRPHC"
    },
    "href" : "https://api.spotify.com/v1/albums/2cVfcuckyfRP6KVAHsRPHC",
    "id" : "2cVfcuckyfRP6KVAHsRPHC",
    "images" : [ {
      "height" : 640,
      "url" : "https://i.scdn.co/image/bdb6244556458292b831fdfd4cae4a61c4db9e48",
      "width" : 640
    }, {
      "height" : 300,
      "url" : "https://i.scdn.co/image/a36d90f74dc8764a0c0bb2b624b7fc181e9bb8a9",
      "width" : 300
    }, {
      "height" : 64,
      "url" : "https://i.scdn.co/image/3d069ef0618ea9cac671c737cb6bc668e1d86ae6",
      "width" : 64
    } ],
    "name" : "No Line On The Horizon (Standard Version)",
    "type" : "album",
    "uri" : "spotify:album:2cVfcuckyfRP6KVAHsRPHC"
  }, {
    "album_type" : "album",
    "available_markets" : [ "GB", "IE" ],
    "external_urls" : {
      "spotify" : "https://open.spotify.com/album/5PQPur1PEZFDkI0AXbxFlB"
    },
    "href" : "https://api.spotify.com/v1/albums/5PQPur1PEZFDkI0AXbxFlB",
    "id" : "5PQPur1PEZFDkI0AXbxFlB",
    "images" : [ {
      "height" : 640,
      "url" : "https://i.scdn.co/image/a3fd04869e10cfadfcee4b21b5988a8731a87ed0",
      "width" : 640
    }, {
      "height" : 300,
      "url" : "https://i.scdn.co/image/60c07baea06cea46bfc7ab06c82cbfe6d9eabfbf",
      "width" : 300
    }, {
      "height" : 64,
      "url" : "https://i.scdn.co/image/23b25f71717bb5bb157ca7ad0d569a102b9d321d",
      "width" : 64
    } ],
    "name" : "How To Dismantle An Atomic Bomb",
    "type" : "album",
    "uri" : "spotify:album:5PQPur1PEZFDkI0AXbxFlB"
  }, {
    "album_type" : "album",
    "available_markets" : [ "AD", "AR", "AT", "AU", "BE", "BG", "BO", "BR", "CH", "CL", "CO", "CR", "CY", "CZ", "DE", "DK", "DO", "EC", "EE", "ES", "FI", "FR", "GR", "GT", "HK", "HN", "HU", "IS", "IT", "LI", "LT", "LU", "LV", "MC", "MT", "MY", "NI", "NL", "NO", "NZ", "PA", "PE", "PH", "PL", "PT", "PY", "RO", "SE", "SG", "SI", "SK", "SV", "TR", "TW", "UY" ],
    "external_urls" : {
      "spotify" : "https://open.spotify.com/album/7z5pDZ0lI5C3aqW2kMoKN9"
    },
    "href" : "https://api.spotify.com/v1/albums/7z5pDZ0lI5C3aqW2kMoKN9",
    "id" : "7z5pDZ0lI5C3aqW2kMoKN9",
    "images" : [ {
      "height" : 640,
      "url" : "https://i.scdn.co/image/a3fd04869e10cfadfcee4b21b5988a8731a87ed0",
      "width" : 640
    }, {
      "height" : 300,
      "url" : "https://i.scdn.co/image/60c07baea06cea46bfc7ab06c82cbfe6d9eabfbf",
      "width" : 300
    }, {
      "height" : 64,
      "url" : "https://i.scdn.co/image/23b25f71717bb5bb157ca7ad0d569a102b9d321d",
      "width" : 64
    } ],
    "name" : "How To Dismantle An Atomic Bomb",
    "type" : "album",
    "uri" : "spotify:album:7z5pDZ0lI5C3aqW2kMoKN9"
  }, {
    "album_type" : "album",
    "available_markets" : [ "CA", "MX", "US" ],
    "external_urls" : {
      "spotify" : "https://open.spotify.com/album/2nPJlUlcyQ24e1VdayD6TT"
    },
    "href" : "https://api.spotify.com/v1/albums/2nPJlUlcyQ24e1VdayD6TT",
    "id" : "2nPJlUlcyQ24e1VdayD6TT",
    "images" : [ {
      "height" : 640,
      "url" : "https://i.scdn.co/image/c1d5365032306f934a00f9e6ff2e36cc86a880de",
      "width" : 640
    }, {
      "height" : 300,
      "url" : "https://i.scdn.co/image/1ba80e91c966d08ba4340b4e9f21c55b064a1e21",
      "width" : 300
    }, {
      "height" : 64,
      "url" : "https://i.scdn.co/image/dfb36fcac428ed4897b9d3ad61d366330b28c7f7",
      "width" : 64
    } ],
    "name" : "How To Dismantle An Atomic Bomb",
    "type" : "album",
    "uri" : "spotify:album:2nPJlUlcyQ24e1VdayD6TT"
  }, {
    "album_type" : "album",
    "available_markets" : [ "CA", "MX", "US" ],
    "external_urls" : {
      "spotify" : "https://open.spotify.com/album/7gskILm9UyDvFlmmAoqn2g"
    },
    "href" : "https://api.spotify.com/v1/albums/7gskILm9UyDvFlmmAoqn2g",
    "id" : "7gskILm9UyDvFlmmAoqn2g",
    "images" : [ {
      "height" : 635,
      "url" : "https://i.scdn.co/image/fb3380168dbcdd22e6955bc7b770dc5c93c1e88b",
      "width" : 640
    }, {
      "height" : 297,
      "url" : "https://i.scdn.co/image/99d97d9f0b2ce25aee91ff8231f720063cf2e568",
      "width" : 300
    }, {
      "height" : 63,
      "url" : "https://i.scdn.co/image/45c5bfc1ea363798032f5949f01d419a27f19c30",
      "width" : 64
    } ],
    "name" : "All That You Can't Leave Behind (Non EU Version)",
    "type" : "album",
    "uri" : "spotify:album:7gskILm9UyDvFlmmAoqn2g"
  }, {
    "album_type" : "album",
    "available_markets" : [ "AD", "AR", "AT", "AU", "BE", "BG", "BO", "BR", "CH", "CL", "CO", "CR", "CY", "CZ", "DE", "DK", "DO", "EC", "EE", "ES", "FI", "FR", "GB", "GR", "GT", "HK", "HN", "HU", "IE", "IS", "IT", "LI", "LT", "LU", "LV", "MC", "MT", "MY", "NI", "NL", "NO", "NZ", "PA", "PE", "PH", "PL", "PT", "PY", "RO", "SE", "SG", "SI", "SK", "SV", "TR", "TW", "UY" ],
    "external_urls" : {
      "spotify" : "https://open.spotify.com/album/7a5U0GPoAvT3gvEY66FRuN"
    },
    "href" : "https://api.spotify.com/v1/albums/7a5U0GPoAvT3gvEY66FRuN",
    "id" : "7a5U0GPoAvT3gvEY66FRuN",
    "images" : [ {
      "height" : 634,
      "url" : "https://i.scdn.co/image/515919e9fd8a091bc103384e8a0460c0c30aad0d",
      "width" : 640
    }, {
      "height" : 297,
      "url" : "https://i.scdn.co/image/0a680c32f39d7a9153cbcb816b9cfb579f1ab696",
      "width" : 300
    }, {
      "height" : 63,
      "url" : "https://i.scdn.co/image/7b454a7b19af8c8f994d8065369dd31871aac917",
      "width" : 64
    } ],
    "name" : "All That You Can't Leave Behind",
    "type" : "album",
    "uri" : "spotify:album:7a5U0GPoAvT3gvEY66FRuN"
  }, {
    "album_type" : "album",
    "available_markets" : [ "AD", "AR", "AT", "AU", "BE", "BG", "BO", "BR", "CH", "CL", "CO", "CR", "CY", "CZ", "DE", "DK", "DO", "EC", "EE", "ES", "FI", "FR", "GB", "GR", "GT", "HK", "HN", "HU", "IE", "IS", "IT", "LI", "LT", "LU", "LV", "MC", "MT", "MY", "NI", "NL", "NO", "NZ", "PA", "PE", "PH", "PL", "PT", "PY", "RO", "SE", "SG", "SI", "SK", "SV", "TR", "TW", "UY" ],
    "external_urls" : {
      "spotify" : "https://open.spotify.com/album/67Q70XtbXmJ4nlAyTcn0dA"
    },
    "href" : "https://api.spotify.com/v1/albums/67Q70XtbXmJ4nlAyTcn0dA",
    "id" : "67Q70XtbXmJ4nlAyTcn0dA",
    "images" : [ {
      "height" : 640,
      "url" : "https://i.scdn.co/image/0ea8c519bb455aef4633e8fe92cce21930ad5da8",
      "width" : 638
    }, {
      "height" : 300,
      "url" : "https://i.scdn.co/image/8accd92495da25f627f96cbd2dbe8276f3ec77b6",
      "width" : 299
    }, {
      "height" : 64,
      "url" : "https://i.scdn.co/image/f84c916249733f14a5fd10ae53fb10a9963d9b82",
      "width" : 64
    } ],
    "name" : "Pop",
    "type" : "album",
    "uri" : "spotify:album:67Q70XtbXmJ4nlAyTcn0dA"
  }, {
    "album_type" : "album",
    "available_markets" : [ "CA", "MX", "US" ],
    "external_urls" : {
      "spotify" : "https://open.spotify.com/album/5mojJwWgWNJcY3odUGgQc3"
    },
    "href" : "https://api.spotify.com/v1/albums/5mojJwWgWNJcY3odUGgQc3",
    "id" : "5mojJwWgWNJcY3odUGgQc3",
    "images" : [ {
      "height" : 640,
      "url" : "https://i.scdn.co/image/477d1216a0f327c795d091f880052d97d4f51360",
      "width" : 639
    }, {
      "height" : 300,
      "url" : "https://i.scdn.co/image/5fbe8da211676dd219cd330eb402d0dfb24160fa",
      "width" : 299
    }, {
      "height" : 64,
      "url" : "https://i.scdn.co/image/3c1b0fc6e64a9dfc6ac3c5e1cd8d13fe2b174317",
      "width" : 64
    } ],
    "name" : "Pop",
    "type" : "album",
    "uri" : "spotify:album:5mojJwWgWNJcY3odUGgQc3"
  }, {
    "album_type" : "album",
    "available_markets" : [ "AD", "AR", "AT", "AU", "BE", "BG", "BO", "BR", "CH", "CL", "CO", "CR", "CY", "CZ", "DE", "DK", "DO", "EC", "EE", "ES", "FI", "FR", "GB", "GR", "GT", "HK", "HN", "HU", "IE", "IS", "IT", "LI", "LT", "LU", "LV", "MC", "MT", "MY", "NI", "NL", "NO", "NZ", "PA", "PE", "PH", "PL", "PT", "PY", "RO", "SE", "SG", "SI", "SK", "SV", "TR", "TW", "UY" ],
    "external_urls" : {
      "spotify" : "https://open.spotify.com/album/27kWhG6vYQDkk0cIe8RXaZ"
    },
    "href" : "https://api.spotify.com/v1/albums/27kWhG6vYQDkk0cIe8RXaZ",
    "id" : "27kWhG6vYQDkk0cIe8RXaZ",
    "images" : [ {
      "height" : 631,
      "url" : "https://i.scdn.co/image/657143e5518d0fbf69c79962df17255d5b988651",
      "width" : 640
    }, {
      "height" : 296,
      "url" : "https://i.scdn.co/image/b7eaf6bac8bc9ef477622a3d5e318f45bbdc65d9",
      "width" : 300
    }, {
      "height" : 63,
      "url" : "https://i.scdn.co/image/59d43fdcaa49614b38602dd84df93793b13fc504",
      "width" : 64
    } ],
    "name" : "Zooropa",
    "type" : "album",
    "uri" : "spotify:album:27kWhG6vYQDkk0cIe8RXaZ"
  }, {
    "album_type" : "album",
    "available_markets" : [ "CA", "MX", "US" ],
    "external_urls" : {
      "spotify" : "https://open.spotify.com/album/0IYjMBLA9PgtXyRPlLmTDE"
    },
    "href" : "https://api.spotify.com/v1/albums/0IYjMBLA9PgtXyRPlLmTDE",
    "id" : "0IYjMBLA9PgtXyRPlLmTDE",
    "images" : [ {
      "height" : 631,
      "url" : "https://i.scdn.co/image/d43e41a5eee7cb58847c4466297fae185d0f50c9",
      "width" : 640
    }, {
      "height" : 296,
      "url" : "https://i.scdn.co/image/d7cf5945d2ac1fb1fa2730c5670fbd64f364f7a2",
      "width" : 300
    }, {
      "height" : 63,
      "url" : "https://i.scdn.co/image/bb580267f38d9331eb8fee56f35848419099aa07",
      "width" : 64
    } ],
    "name" : "Zooropa",
    "type" : "album",
    "uri" : "spotify:album:0IYjMBLA9PgtXyRPlLmTDE"
  }, {
    "album_type" : "album",
    "available_markets" : [ "AD", "AR", "AT", "AU", "BE", "BG", "BO", "BR", "CH", "CL", "CO", "CR", "CY", "CZ", "DE", "DK", "DO", "EC", "EE", "ES", "FI", "FR", "GR", "GT", "HK", "HN", "HU", "IE", "IS", "IT", "LI", "LT", "LU", "LV", "MC", "MT", "MY", "NI", "NL", "NO", "NZ", "PA", "PE", "PH", "PL", "PT", "PY", "RO", "SE", "SG", "SI", "SK", "SV", "TR", "TW", "UY", "AD", "AR", "AT", "AU", "BE", "BG", "BO", "BR", "CH", "CL", "CO", "CR", "CY", "CZ", "DE", "DK", "DO", "EC", "EE", "ES", "FI", "FR", "GB", "GR", "GT", "HK", "HN", "HU", "IE", "IS", "IT", "LI", "LT", "LU", "LV", "MC", "MT", "MY", "NI", "NL", "NO", "NZ", "PA", "PE", "PH", "PL", "PT", "PY", "RO", "SE", "SG", "SI", "SK", "SV", "TR", "TW", "UY" ],
    "external_urls" : {
      "spotify" : "https://open.spotify.com/album/1U69hFsxaQxP6fquZmOmNH"
    },
    "href" : "https://api.spotify.com/v1/albums/1U69hFsxaQxP6fquZmOmNH",
    "id" : "1U69hFsxaQxP6fquZmOmNH",
    "images" : [ {
      "height" : 640,
      "url" : "https://i.scdn.co/image/ecf29bab798ac38498392f8b837d1e7ca9f9d325",
      "width" : 640
    }, {
      "height" : 300,
      "url" : "https://i.scdn.co/image/3c8099ecec24865eedbce388af3f7812ac630e20",
      "width" : 300
    }, {
      "height" : 64,
      "url" : "https://i.scdn.co/image/78197ff56cd1d444dfe0671da2adfb0cc9e01c58",
      "width" : 64
    } ],
    "name" : "Achtung Baby",
    "type" : "album",
    "uri" : "spotify:album:1U69hFsxaQxP6fquZmOmNH"
  }, {
    "album_type" : "album",
    "available_markets" : [ "CA", "MX", "US" ],
    "external_urls" : {
      "spotify" : "https://open.spotify.com/album/0ta5VdkJcpdVnNrn7g4cZe"
    },
    "href" : "https://api.spotify.com/v1/albums/0ta5VdkJcpdVnNrn7g4cZe",
    "id" : "0ta5VdkJcpdVnNrn7g4cZe",
    "images" : [ {
      "height" : 640,
      "url" : "https://i.scdn.co/image/c2d331b89602f065c14ef9cfb4952e8033c129a3",
      "width" : 640
    }, {
      "height" : 300,
      "url" : "https://i.scdn.co/image/6c0dac006fe74f6e9172a8402613ed730e059752",
      "width" : 300
    }, {
      "height" : 64,
      "url" : "https://i.scdn.co/image/d884446a349cba513aa633930ee2859b822b9e7a",
      "width" : 64
    } ],
    "name" : "Achtung Baby",
    "type" : "album",
    "uri" : "spotify:album:0ta5VdkJcpdVnNrn7g4cZe"
  }, {
    "album_type" : "album",
    "available_markets" : [ "AD", "AR", "AT", "AU", "BE", "BG", "BO", "BR", "CH", "CL", "CO", "CR", "CY", "CZ", "DE", "DK", "DO", "EC", "EE", "ES", "FI", "FR", "GB", "GR", "GT", "HK", "HN", "HU", "IE", "IS", "IT", "LI", "LT", "LU", "LV", "MC", "MT", "MY", "NI", "NL", "NO", "NZ", "PA", "PE", "PH", "PL", "PT", "PY", "RO", "SE", "SG", "SI", "SK", "SV", "TR", "TW", "UY" ],
    "external_urls" : {
      "spotify" : "https://open.spotify.com/album/3hErePSImi79vYHrSmypGw"
    },
    "href" : "https://api.spotify.com/v1/albums/3hErePSImi79vYHrSmypGw",
    "id" : "3hErePSImi79vYHrSmypGw",
    "images" : [ {
      "height" : 640,
      "url" : "https://i.scdn.co/image/a36762f6b7b96b9e6e525d1b2e1620a51ffa6c60",
      "width" : 640
    }, {
      "height" : 300,
      "url" : "https://i.scdn.co/image/0978ae288f1e1e17b1c3ecacfec2d354836877d1",
      "width" : 300
    }, {
      "height" : 64,
      "url" : "https://i.scdn.co/image/c172343a1d2eb0e423a562b9a047c1e4dfbb4eec",
      "width" : 64
    } ],
    "name" : "Achtung Baby",
    "type" : "album",
    "uri" : "spotify:album:3hErePSImi79vYHrSmypGw"
  }, {
    "album_type" : "album",
    "available_markets" : [ "CA", "MX", "US" ],
    "external_urls" : {
      "spotify" : "https://open.spotify.com/album/5n52kyQKeUZs5ObZJejLQd"
    },
    "href" : "https://api.spotify.com/v1/albums/5n52kyQKeUZs5ObZJejLQd",
    "id" : "5n52kyQKeUZs5ObZJejLQd",
    "images" : [ {
      "height" : 640,
      "url" : "https://i.scdn.co/image/27c65ab47530828bb6121c4a9a5a685ed2c38c83",
      "width" : 640
    }, {
      "height" : 300,
      "url" : "https://i.scdn.co/image/8f3cf7e06c79c8871b1831ad83ac874ee64f44af",
      "width" : 300
    }, {
      "height" : 64,
      "url" : "https://i.scdn.co/image/a333b1a5ed01b3bb4c8678a05a7be14e9243e952",
      "width" : 64
    } ],
    "name" : "Achtung Baby",
    "type" : "album",
    "uri" : "spotify:album:5n52kyQKeUZs5ObZJejLQd"
  }, {
    "album_type" : "album",
    "available_markets" : [ "CA", "US" ],
    "external_urls" : {
      "spotify" : "https://open.spotify.com/album/7hIoJcH4ObWasDFq78u1x9"
    },
    "href" : "https://api.spotify.com/v1/albums/7hIoJcH4ObWasDFq78u1x9",
    "id" : "7hIoJcH4ObWasDFq78u1x9",
    "images" : [ {
      "height" : 635,
      "url" : "https://i.scdn.co/image/bc047b6dd5a135c05a6d35573b7bec3dd368c718",
      "width" : 640
    }, {
      "height" : 297,
      "url" : "https://i.scdn.co/image/b7e3a1788a45bfa70fb0c7fb2d530cf0a1bdfa2a",
      "width" : 300
    }, {
      "height" : 63,
      "url" : "https://i.scdn.co/image/99f455c0a2a4ab82e7d7c160b3e89dc895875580",
      "width" : 64
    } ],
    "name" : "Rattle And Hum",
    "type" : "album",
    "uri" : "spotify:album:7hIoJcH4ObWasDFq78u1x9"
  } ],
  "limit" : 20,
  "next" : "https://api.spotify.com/v1/artists/51Blml2LZPmy7TTiAg47vQ/albums?offset=20&limit=20&album_type=single,album,compilation,appears_on,ep",
  "offset" : 0,
  "previous" : null,
  "total" : 274
}